{
  "project_info": {
    "project_number": "47503474626",
    "firebase_url": "https://bmiproject-cee51-default-rtdb.firebaseio.com",
    "project_id": "bmiproject-cee51",
    "storage_bucket": "bmiproject-cee51.appspot.com"
  },
  "client": [
    {
      "client_info": {
        "mobilesdk_app_id": "1:47503474626:android:8d51f809ee44733b3f605b",
        "android_client_info": {
          "package_name": "com.example.bodymassindex"
        }
      },
      "oauth_client": [
        {
          "client_id": "47503474626-kn0q8ob684u7ljjfri0lphajlf4f04ug.apps.googleusercontent.com",
          "client_type": 3
        }
      ],
      "api_key": [
        {
          "current_key": "AIzaSyBPtrKAqc3AvJQnvfSSp6GIjdI_vv0BuiA"
        }
      ],
      "services": {
        "appinvite_service": {
          "other_platform_oauth_client": [
            {
              "client_id": "47503474626-kn0q8ob684u7ljjfri0lphajlf4f04ug.apps.googleusercontent.com",
              "client_type": 3
            }
          ]
        }
      }
    }
  ],
  "configuration_version": "1"
}